Take a Sad Script & Make it Better: Tidymodels Edition | Nina :D
…
To see the predictions, we need to add use control_resamples():

penguin_party <-
  tune::fit_resamples(
    body_mass_g ~ .,
    model = rt_spec,
    resamples = penguin_folds,
    control = control_resamples(save_pred = TRUE) # add this line
)

Then we collect the predictions.

penguin_party %>% 
  collect_predictions()
#> # A tibble: 251 x 4
#>    id     .pred  .row body_mass_g
#>    <chr>  <dbl> <int>       <dbl>
#>  1 Fold01 4040.     4        4675
#>  2 Fold01 3428.    11        3800
#>  3 Fold01 3428.    14        3200
#>  4 Fold01 4040.    41        3750
#>  5 Fold01 4040.    54        3900
#>  6 Fold01 3428.    65        3400
#>  7 Fold01 3428.    70        2900
#>  8 Fold01 4040.    71        4100
#>  9 Fold01 3428.    76        2925
#> 10 Fold01 4040.    85        3775
#> # … with 241 more rows
…
